simulation/qsim/Cronometro.msim.vcd
$comment
	File created using the following command:
		vcd file Cronometro.msim.vcd -direction
$end
$date
	Mon Apr 26 15:41:11 2021
$end
$version
	ModelSim Version 2020.1
$end
$timescale
	1ps
$end

$scope module Cronometro_vlg_vec_tst $end
$var reg 4 ! botao [3:0] $end
$var reg 1 " clock $end
$var wire 1 # mostrador0 [3] $end
$var wire 1 $ mostrador0 [2] $end
$var wire 1 % mostrador0 [1] $end
$var wire 1 & mostrador0 [0] $end
$var wire 1 ' mostrador1 [3] $end
$var wire 1 ( mostrador1 [2] $end
$var wire 1 ) mostrador1 [1] $end
$var wire 1 * mostrador1 [0] $end
$var wire 1 + mostrador2 [3] $end
$var wire 1 , mostrador2 [2] $end
$var wire 1 - mostrador2 [1] $end
$var wire 1 . mostrador2 [0] $end
$var wire 1 / mostrador3 [3] $end
$var wire 1 0 mostrador3 [2] $end
$var wire 1 1 mostrador3 [1] $end
$var wire 1 2 mostrador3 [0] $end

$scope module i1 $end
$var wire 1 3 gnd $end
$var wire 1 4 vcc $end
$var wire 1 5 unknown $end
$var tri1 1 6 devclrn $end
$var tri1 1 7 devpor $end
$var tri1 1 8 devoe $end
$var wire 1 9 mostrador0[0]~output_o $end
$var wire 1 : mostrador0[1]~output_o $end
$var wire 1 ; mostrador0[2]~output_o $end
$var wire 1 < mostrador0[3]~output_o $end
$var wire 1 = mostrador1[0]~output_o $end
$var wire 1 > mostrador1[1]~output_o $end
$var wire 1 ? mostrador1[2]~output_o $end
$var wire 1 @ mostrador1[3]~output_o $end
$var wire 1 A mostrador2[0]~output_o $end
$var wire 1 B mostrador2[1]~output_o $end
$var wire 1 C mostrador2[2]~output_o $end
$var wire 1 D mostrador2[3]~output_o $end
$var wire 1 E mostrador3[0]~output_o $end
$var wire 1 F mostrador3[1]~output_o $end
$var wire 1 G mostrador3[2]~output_o $end
$var wire 1 H mostrador3[3]~output_o $end
$var wire 1 I clock~input_o $end
$var wire 1 J clock~inputclkctrl_outclk $end
$var wire 1 K numero[0]~15_combout $end
$var wire 1 L botao[0]~input_o $end
$var wire 1 M botao[2]~input_o $end
$var wire 1 N botao[3]~input_o $end
$var wire 1 O botao[1]~input_o $end
$var wire 1 P WideOr0~0_combout $end
$var wire 1 Q Equal0~0_combout $end
$var wire 1 R Equal0~0clkctrl_outclk $end
$var wire 1 S prox_estado.resetar_448~combout $end
$var wire 1 T estado.resetar_474~combout $end
$var wire 1 U LessThan0~0_combout $end
$var wire 1 V LessThan0~1_combout $end
$var wire 1 W LessThan0~3_combout $end
$var wire 1 X LessThan0~2_combout $end
$var wire 1 Y LessThan0~4_combout $end
$var wire 1 Z numero[7]~14_combout $end
$var wire 1 [ Mux1~0_combout $end
$var wire 1 \ Mux0~0_combout $end
$var wire 1 ] prox_estado.contar_462~combout $end
$var wire 1 ^ estado.contar_486~combout $end
$var wire 1 _ Mux1~1_combout $end
$var wire 1 ` prox_estado.pausar_455~combout $end
$var wire 1 a estado.pausar_480~combout $end
$var wire 1 b WideNor0~0_combout $end
$var wire 1 c numero[0]~16 $end
$var wire 1 d numero[1]~17_combout $end
$var wire 1 e numero[1]~18 $end
$var wire 1 f numero[2]~19_combout $end
$var wire 1 g numero[2]~20 $end
$var wire 1 h numero[3]~21_combout $end
$var wire 1 i numero[3]~22 $end
$var wire 1 j numero[4]~23_combout $end
$var wire 1 k numero[4]~24 $end
$var wire 1 l numero[5]~25_combout $end
$var wire 1 m numero[5]~26 $end
$var wire 1 n numero[6]~27_combout $end
$var wire 1 o numero[6]~28 $end
$var wire 1 p numero[7]~29_combout $end
$var wire 1 q numero[7]~30 $end
$var wire 1 r numero[8]~31_combout $end
$var wire 1 s numero[8]~32 $end
$var wire 1 t numero[9]~33_combout $end
$var wire 1 u numero[9]~34 $end
$var wire 1 v numero[10]~35_combout $end
$var wire 1 w numero[10]~36 $end
$var wire 1 x numero[11]~37_combout $end
$var wire 1 y numero[11]~38 $end
$var wire 1 z numero[12]~39_combout $end
$var wire 1 { numero[12]~40 $end
$var wire 1 | numero[13]~41_combout $end
$var wire 1 } Selector34~0_combout $end
$var wire 1 ~ Selector17~0_combout $end
$var wire 1 !! Selector16~2_combout $end
$var wire 1 "! Add1~1_combout $end
$var wire 1 #! Selector15~0_combout $end
$var wire 1 $! Add1~2_combout $end
$var wire 1 %! Selector14~0_combout $end
$var wire 1 &! LessThan1~0_combout $end
$var wire 1 '! Selector33~0_combout $end
$var wire 1 (! Selector33~1_combout $end
$var wire 1 )! mostrador0[0]~reg0_q $end
$var wire 1 *! Selector32~0_combout $end
$var wire 1 +! Add1~0_combout $end
$var wire 1 ,! Selector32~1_combout $end
$var wire 1 -! mostrador0[1]~reg0_q $end
$var wire 1 .! Selector31~0_combout $end
$var wire 1 /! Selector31~1_combout $end
$var wire 1 0! mostrador0[2]~reg0_q $end
$var wire 1 1! Selector30~0_combout $end
$var wire 1 2! Selector30~1_combout $end
$var wire 1 3! mostrador0[3]~reg0_q $end
$var wire 1 4! mostrador0~0_combout $end
$var wire 1 5! Selector21~2_combout $end
$var wire 1 6! numero1~1_combout $end
$var wire 1 7! Selector20~0_combout $end
$var wire 1 8! Add2~0_combout $end
$var wire 1 9! numero1~2_combout $end
$var wire 1 :! Selector19~0_combout $end
$var wire 1 ;! Add2~1_combout $end
$var wire 1 <! numero1~3_combout $end
$var wire 1 =! Selector18~0_combout $end
$var wire 1 >! LessThan2~0_combout $end
$var wire 1 ?! numero1~0_combout $end
$var wire 1 @! Selector37~0_combout $end
$var wire 1 A! mostrador1[0]~reg0_q $end
$var wire 1 B! Selector36~0_combout $end
$var wire 1 C! mostrador1[1]~reg0_q $end
$var wire 1 D! Selector35~0_combout $end
$var wire 1 E! mostrador1[2]~reg0_q $end
$var wire 1 F! Selector34~1_combout $end
$var wire 1 G! mostrador1[3]~reg0_q $end
$var wire 1 H! Selector25~0_combout $end
$var wire 1 I! numero2~1_combout $end
$var wire 1 J! numero2~2_combout $end
$var wire 1 K! Selector24~0_combout $end
$var wire 1 L! Add3~0_combout $end
$var wire 1 M! numero2~3_combout $end
$var wire 1 N! Selector23~0_combout $end
$var wire 1 O! Add3~1_combout $end
$var wire 1 P! numero2~4_combout $end
$var wire 1 Q! Selector22~0_combout $end
$var wire 1 R! LessThan3~0_combout $end
$var wire 1 S! numero2~0_combout $end
$var wire 1 T! Selector41~0_combout $end
$var wire 1 U! mostrador2[0]~reg0_q $end
$var wire 1 V! Selector40~0_combout $end
$var wire 1 W! mostrador2[1]~reg0_q $end
$var wire 1 X! Selector39~0_combout $end
$var wire 1 Y! mostrador2[2]~reg0_q $end
$var wire 1 Z! Selector38~0_combout $end
$var wire 1 [! mostrador2[3]~reg0_q $end
$var wire 1 \! numero3~0_combout $end
$var wire 1 ]! numero3~2_combout $end
$var wire 1 ^! Selector28~0_combout $end
$var wire 1 _! Add4~0_combout $end
$var wire 1 `! numero3~3_combout $end
$var wire 1 a! Selector27~0_combout $end
$var wire 1 b! Add4~1_combout $end
$var wire 1 c! numero3~4_combout $end
$var wire 1 d! Selector26~0_combout $end
$var wire 1 e! LessThan4~0_combout $end
$var wire 1 f! Selector29~2_combout $end
$var wire 1 g! numero3~1_combout $end
$var wire 1 h! Selector45~0_combout $end
$var wire 1 i! mostrador3[0]~reg0_q $end
$var wire 1 j! Selector44~0_combout $end
$var wire 1 k! mostrador3[1]~reg0_q $end
$var wire 1 l! Selector43~0_combout $end
$var wire 1 m! mostrador3[2]~reg0_q $end
$var wire 1 n! Selector42~0_combout $end
$var wire 1 o! mostrador3[3]~reg0_q $end
$var wire 1 p! numero [13] $end
$var wire 1 q! numero [12] $end
$var wire 1 r! numero [11] $end
$var wire 1 s! numero [10] $end
$var wire 1 t! numero [9] $end
$var wire 1 u! numero [8] $end
$var wire 1 v! numero [7] $end
$var wire 1 w! numero [6] $end
$var wire 1 x! numero [5] $end
$var wire 1 y! numero [4] $end
$var wire 1 z! numero [3] $end
$var wire 1 {! numero [2] $end
$var wire 1 |! numero [1] $end
$var wire 1 }! numero [0] $end
$var wire 1 ~! numero0 [3] $end
$var wire 1 !" numero0 [2] $end
$var wire 1 "" numero0 [1] $end
$var wire 1 #" numero0 [0] $end
$var wire 1 $" numero1 [3] $end
$var wire 1 %" numero1 [2] $end
$var wire 1 &" numero1 [1] $end
$var wire 1 '" numero1 [0] $end
$var wire 1 (" numero2 [3] $end
$var wire 1 )" numero2 [2] $end
$var wire 1 *" numero2 [1] $end
$var wire 1 +" numero2 [0] $end
$var wire 1 ," numero3 [3] $end
$var wire 1 -" numero3 [2] $end
$var wire 1 ." numero3 [1] $end
$var wire 1 /" numero3 [0] $end
$upscope $end
$upscope $end
$enddefinitions $end
#0
$dumpvars
b1111 !
0"
0&
0%
0$
0#
0*
0)
0(
0'
0.
0-
0,
0+
02
01
00
0/
03
14
x5
16
17
18
09
0:
0;
0<
0=
0>
0?
0@
0A
0B
0C
0D
0E
0F
0G
0H
0I
0J
1K
1L
1M
1N
1O
0P
1Q
1R
xS
xT
1U
1V
1W
1X
1Y
xZ
0[
1\
x]
x^
0_
x`
xa
xb
0c
0d
1e
0f
0g
0h
1i
0j
0k
0l
1m
0n
0o
0p
1q
0r
0s
0t
1u
0v
0w
0x
1y
0z
0{
0|
x}
x~
0!!
0"!
0#!
0$!
0%!
1&!
0'!
x(!
0)!
0*!
0+!
0,!
0-!
0.!
0/!
00!
01!
02!
03!
x4!
05!
06!
07!
08!
09!
0:!
0;!
0<!
0=!
1>!
0?!
0@!
0A!
0B!
0C!
0D!
0E!
0F!
0G!
0H!
0I!
0J!
0K!
0L!
0M!
0N!
0O!
0P!
0Q!
1R!
0S!
0T!
0U!
0V!
0W!
0X!
0Y!
0Z!
0[!
1\!
0]!
0^!
0_!
0`!
0a!
0b!
0c!
0d!
1e!
0f!
0g!
0h!
0i!
0j!
0k!
0l!
0m!
0n!
0o!
0}!
0|!
0{!
0z!
0y!
0x!
0w!
0v!
0u!
0t!
0s!
0r!
0q!
0p!
0#"
0""
0!"
0~!
0'"
0&"
0%"
0$"
0+"
0*"
0)"
0("
0/"
0."
0-"
0,"
$end
#50
1"
1I
1J
x)!
x9
x'!
x&
#100
0"
0I
0J
#150
1"
1I
1J
#200
0"
0I
0J
#250
1"
1I
1J
#300
0"
0I
0J
#350
1"
1I
1J
#400
0"
0I
0J
#450
1"
1I
1J
#500
0"
0I
0J
#550
1"
1I
1J
#600
0"
0I
0J
#650
1"
1I
1J
#700
0"
0I
0J
#750
1"
1I
1J
#800
0"
0I
0J
#850
1"
1I
1J
#900
0"
0I
0J
#950
1"
1I
1J
#1000
0"
0I
0J
#1050
1"
1I
1J
#1100
0"
0I
0J
#1150
1"
1I
1J
#1200
0"
0I
0J
#1250
1"
1I
1J
#1300
0"
0I
0J
#1350
1"
1I
1J
#1400
0"
0I
0J
#1450
1"
1I
1J
#1500
0"
0I
0J
#1550
1"
1I
1J
#1600
0"
0I
0J
#1650
1"
1I
1J
#1700
0"
0I
0J
#1750
1"
1I
1J
#1800
0"
0I
0J
#1850
1"
1I
1J
#1900
0"
0I
0J
#1950
1"
1I
1J
#2000
0"
0I
0J
#2050
1"
1I
1J
#2100
0"
0I
0J
#2150
1"
1I
1J
#2200
0"
0I
0J
#2250
1"
1I
1J
#2300
0"
0I
0J
#2350
1"
1I
1J
#2400
0"
0I
0J
#2450
1"
1I
1J
#2500
0"
0I
0J
#2550
1"
1I
1J
#2600
0"
0I
0J
#2650
1"
1I
1J
#2700
0"
0I
0J
#2750
1"
1I
1J
#2800
0"
0I
0J
#2850
1"
1I
1J
#2900
0"
0I
0J
#2950
1"
1I
1J
#3000
0"
0I
0J
#3050
1"
1I
1J
#3100
0"
0I
0J
#3150
1"
1I
1J
#3200
0"
0I
0J
#3250
1"
1I
1J
#3300
0"
0I
0J
#3350
1"
1I
1J
#3400
0"
0I
0J
#3450
1"
1I
1J
#3500
0"
0I
0J
#3550
1"
1I
1J
#3600
0"
0I
0J
#3650
1"
1I
1J
#3700
0"
0I
0J
#3750
1"
1I
1J
#3800
0"
0I
0J
#3850
1"
1I
1J
#3900
0"
0I
0J
#3950
1"
1I
1J
#4000
0"
0I
0J
#4050
1"
1I
1J
#4100
0"
0I
0J
#4150
1"
1I
1J
#4200
0"
0I
0J
#4250
1"
1I
1J
#4300
0"
0I
0J
#4350
1"
1I
1J
#4400
0"
0I
0J
#4450
1"
1I
1J
#4500
0"
0I
0J
#4550
1"
1I
1J
#4600
0"
0I
0J
#4650
1"
1I
1J
#4700
0"
0I
0J
#4750
1"
1I
1J
#4800
0"
0I
0J
#4850
1"
1I
1J
#4900
0"
0I
0J
#4950
1"
1I
1J
#5000
0"
0I
0J
#5050
1"
1I
1J
#5100
0"
0I
0J
#5150
1"
1I
1J
#5200
0"
0I
0J
#5250
1"
1I
1J
#5300
0"
0I
0J
#5350
1"
1I
1J
#5400
0"
0I
0J
#5450
1"
1I
1J
#5500
0"
0I
0J
#5550
1"
1I
1J
#5600
0"
0I
0J
#5650
1"
1I
1J
#5700
0"
0I
0J
#5750
1"
1I
1J
#5800
0"
0I
0J
#5850
1"
1I
1J
#5900
0"
0I
0J
#5950
1"
1I
1J
#6000
0"
0I
0J
#6050
1"
1I
1J
#6100
0"
0I
0J
#6150
1"
1I
1J
#6200
0"
0I
0J
#6250
1"
1I
1J
#6300
0"
0I
0J
#6350
1"
1I
1J
#6400
0"
0I
0J
#6450
1"
1I
1J
#6500
0"
0I
0J
#6550
1"
1I
1J
#6600
0"
0I
0J
#6650
1"
1I
1J
#6700
0"
0I
0J
#6750
1"
1I
1J
#6800
0"
0I
0J
#6850
1"
1I
1J
#6900
0"
0I
0J
#6950
1"
1I
1J
#7000
0"
0I
0J
#7050
1"
1I
1J
#7100
0"
0I
0J
#7150
1"
1I
1J
#7200
0"
0I
0J
#7250
1"
1I
1J
#7300
0"
0I
0J
#7350
1"
1I
1J
#7400
0"
0I
0J
#7450
1"
1I
1J
#7500
0"
0I
0J
#7550
1"
1I
1J
#7600
0"
0I
0J
#7650
1"
1I
1J
#7700
0"
0I
0J
#7750
1"
1I
1J
#7800
0"
0I
0J
#7850
1"
1I
1J
#7900
0"
0I
0J
#7950
1"
1I
1J
#8000
0"
0I
0J
#8050
1"
1I
1J
#8100
0"
0I
0J
#8150
1"
1I
1J
#8200
0"
0I
0J
#8250
1"
1I
1J
#8300
0"
0I
0J
#8350
1"
1I
1J
#8400
0"
0I
0J
#8450
1"
1I
1J
#8500
0"
0I
0J
#8550
1"
1I
1J
#8600
0"
0I
0J
#8650
1"
1I
1J
#8700
0"
0I
0J
#8750
1"
1I
1J
#8800
0"
0I
0J
#8850
1"
1I
1J
#8900
0"
0I
0J
#8950
1"
1I
1J
#9000
0"
0I
0J
#9050
1"
1I
1J
#9100
0"
0I
0J
#9150
1"
1I
1J
#9200
0"
0I
0J
#9250
1"
1I
1J
#9300
0"
0I
0J
#9350
1"
1I
1J
#9400
0"
0I
0J
#9450
1"
1I
1J
#9500
0"
0I
0J
#9550
1"
1I
1J
#9600
0"
0I
0J
#9650
1"
1I
1J
#9700
0"
0I
0J
#9750
1"
1I
1J
#9800
0"
0I
0J
#9850
1"
1I
1J
#9900
0"
0I
0J
#9950
1"
1I
1J
#10000
b1110 !
0"
0L
0I
0J
0Q
0R
0`
0]
1S
#10050
1"
1I
1J
#10100
0"
0I
0J
#10150
1"
1I
1J
#10200
0"
0I
0J
#10250
1"
1I
1J
#10300
0"
0I
0J
#10350
1"
1I
1J
#10400
0"
0I
0J
#10450
1"
1I
1J
#10500
0"
0I
0J
#10550
1"
1I
1J
#10600
0"
0I
0J
#10650
1"
1I
1J
#10700
0"
0I
0J
#10750
1"
1I
1J
#10800
0"
0I
0J
#10850
1"
1I
1J
#10900
0"
0I
0J
#10950
1"
1I
1J
#11000
0"
0I
0J
#11050
1"
1I
1J
#11100
0"
0I
0J
#11150
1"
1I
1J
#11200
0"
0I
0J
#11250
1"
1I
1J
#11300
0"
0I
0J
#11350
1"
1I
1J
#11400
0"
0I
0J
#11450
1"
1I
1J
#11500
0"
0I
0J
#11550
1"
1I
1J
#11600
0"
0I
0J
#11650
1"
1I
1J
#11700
0"
0I
0J
#11750
1"
1I
1J
#11800
0"
0I
0J
#11850
1"
1I
1J
#11900
0"
0I
0J
#11950
1"
1I
1J
#12000
0"
0I
0J
#12050
1"
1I
1J
#12100
0"
0I
0J
#12150
1"
1I
1J
#12200
0"
0I
0J
#12250
1"
1I
1J
#12300
0"
0I
0J
#12350
1"
1I
1J
#12400
0"
0I
0J
#12450
1"
1I
1J
#12500
0"
0I
0J
#12550
1"
1I
1J
#12600
0"
0I
0J
#12650
1"
1I
1J
#12700
0"
0I
0J
#12750
1"
1I
1J
#12800
0"
0I
0J
#12850
1"
1I
1J
#12900
0"
0I
0J
#12950
1"
1I
1J
#13000
0"
0I
0J
#13050
1"
1I
1J
#13100
0"
0I
0J
#13150
1"
1I
1J
#13200
0"
0I
0J
#13250
1"
1I
1J
#13300
0"
0I
0J
#13350
1"
1I
1J
#13400
0"
0I
0J
#13450
1"
1I
1J
#13500
0"
0I
0J
#13550
1"
1I
1J
#13600
0"
0I
0J
#13650
1"
1I
1J
#13700
0"
0I
0J
#13750
1"
1I
1J
#13800
0"
0I
0J
#13850
1"
1I
1J
#13900
0"
0I
0J
#13950
1"
1I
1J
#14000
0"
0I
0J
#14050
1"
1I
1J
#14100
0"
0I
0J
#14150
1"
1I
1J
#14200
0"
0I
0J
#14250
1"
1I
1J
#14300
0"
0I
0J
#14350
1"
1I
1J
#14400
0"
0I
0J
#14450
1"
1I
1J
#14500
0"
0I
0J
#14550
1"
1I
1J
#14600
0"
0I
0J
#14650
1"
1I
1J
#14700
0"
0I
0J
#14750
1"
1I
1J
#14800
0"
0I
0J
#14850
1"
1I
1J
#14900
0"
0I
0J
#14950
1"
1I
1J
#15000
0"
0I
0J
#15050
1"
1I
1J
#15100
0"
0I
0J
#15150
1"
1I
1J
#15200
0"
0I
0J
#15250
1"
1I
1J
#15300
0"
0I
0J
#15350
1"
1I
1J
#15400
0"
0I
0J
#15450
1"
1I
1J
#15500
0"
0I
0J
#15550
1"
1I
1J
#15600
0"
0I
0J
#15650
1"
1I
1J
#15700
0"
0I
0J
#15750
1"
1I
1J
#15800
0"
0I
0J
#15850
1"
1I
1J
#15900
0"
0I
0J
#15950
1"
1I
1J
#16000
0"
0I
0J
#16050
1"
1I
1J
#16100
0"
0I
0J
#16150
1"
1I
1J
#16200
0"
0I
0J
#16250
1"
1I
1J
#16300
0"
0I
0J
#16350
1"
1I
1J
#16400
0"
0I
0J
#16450
1"
1I
1J
#16500
0"
0I
0J
#16550
1"
1I
1J
#16600
0"
0I
0J
#16650
1"
1I
1J
#16700
0"
0I
0J
#16750
1"
1I
1J
#16800
0"
0I
0J
#16850
1"
1I
1J
#16900
0"
0I
0J
#16950
1"
1I
1J
#17000
0"
0I
0J
#17050
1"
1I
1J
#17100
0"
0I
0J
#17150
1"
1I
1J
#17200
0"
0I
0J
#17250
1"
1I
1J
#17300
0"
0I
0J
#17350
1"
1I
1J
#17400
0"
0I
0J
#17450
1"
1I
1J
#17500
0"
0I
0J
#17550
1"
1I
1J
#17600
0"
0I
0J
#17650
1"
1I
1J
#17700
0"
0I
0J
#17750
1"
1I
1J
#17800
0"
0I
0J
#17850
1"
1I
1J
#17900
0"
0I
0J
#17950
1"
1I
1J
#18000
0"
0I
0J
#18050
1"
1I
1J
#18100
0"
0I
0J
#18150
1"
1I
1J
#18200
0"
0I
0J
#18250
1"
1I
1J
#18300
0"
0I
0J
#18350
1"
1I
1J
#18400
0"
0I
0J
#18450
1"
1I
1J
#18500
0"
0I
0J
#18550
1"
1I
1J
#18600
0"
0I
0J
#18650
1"
1I
1J
#18700
0"
0I
0J
#18750
1"
1I
1J
#18800
0"
0I
0J
#18850
1"
1I
1J
#18900
0"
0I
0J
#18950
1"
1I
1J
#19000
0"
0I
0J
#19050
1"
1I
1J
#19100
0"
0I
0J
#19150
1"
1I
1J
#19200
0"
0I
0J
#19250
1"
1I
1J
#19300
0"
0I
0J
#19350
1"
1I
1J
#19400
0"
0I
0J
#19450
1"
1I
1J
#19500
0"
0I
0J
#19550
1"
1I
1J
#19600
0"
0I
0J
#19650
1"
1I
1J
#19700
0"
0I
0J
#19750
1"
1I
1J
#19800
0"
0I
0J
#19850
1"
1I
1J
#19900
0"
0I
0J
#19950
1"
1I
1J
#20000
0"
0I
0J
#20050
1"
1I
1J
#20100
0"
0I
0J
#20150
1"
1I
1J
#20200
0"
0I
0J
#20250
1"
1I
1J
#20300
0"
0I
0J
#20350
1"
1I
1J
#20400
0"
0I
0J
#20450
1"
1I
1J
#20500
0"
0I
0J
#20550
1"
1I
1J
#20600
0"
0I
0J
#20650
1"
1I
1J
#20700
0"
0I
0J
#20750
1"
1I
1J
#20800
0"
0I
0J
#20850
1"
1I
1J
#20900
0"
0I
0J
#20950
1"
1I
1J
#21000
0"
0I
0J
#21050
1"
1I
1J
#21100
0"
0I
0J
#21150
1"
1I
1J
#21200
0"
0I
0J
#21250
1"
1I
1J
#21300
0"
0I
0J
#21350
1"
1I
1J
#21400
0"
0I
0J
#21450
1"
1I
1J
#21500
0"
0I
0J
#21550
1"
1I
1J
#21600
0"
0I
0J
#21650
1"
1I
1J
#21700
0"
0I
0J
#21750
1"
1I
1J
#21800
0"
0I
0J
#21850
1"
1I
1J
#21900
0"
0I
0J
#21950
1"
1I
1J
#22000
0"
0I
0J
#22050
1"
1I
1J
#22100
0"
0I
0J
#22150
1"
1I
1J
#22200
0"
0I
0J
#22250
1"
1I
1J
#22300
0"
0I
0J
#22350
1"
1I
1J
#22400
0"
0I
0J
#22450
1"
1I
1J
#22500
0"
0I
0J
#22550
1"
1I
1J
#22600
0"
0I
0J
#22650
1"
1I
1J
#22700
0"
0I
0J
#22750
1"
1I
1J
#22800
0"
0I
0J
#22850
1"
1I
1J
#22900
0"
0I
0J
#22950
1"
1I
1J
#23000
0"
0I
0J
#23050
1"
1I
1J
#23100
0"
0I
0J
#23150
1"
1I
1J
#23200
0"
0I
0J
#23250
1"
1I
1J
#23300
0"
0I
0J
#23350
1"
1I
1J
#23400
0"
0I
0J
#23450
1"
1I
1J
#23500
0"
0I
0J
#23550
1"
1I
1J
#23600
0"
0I
0J
#23650
1"
1I
1J
#23700
0"
0I
0J
#23750
1"
1I
1J
#23800
0"
0I
0J
#23850
1"
1I
1J
#23900
0"
0I
0J
#23950
1"
1I
1J
#24000
0"
0I
0J
#24050
1"
1I
1J
#24100
0"
0I
0J
#24150
1"
1I
1J
#24200
0"
0I
0J
#24250
1"
1I
1J
#24300
0"
0I
0J
#24350
1"
1I
1J
#24400
0"
0I
0J
#24450
1"
1I
1J
#24500
0"
0I
0J
#24550
1"
1I
1J
#24600
0"
0I
0J
#24650
1"
1I
1J
#24700
0"
0I
0J
#24750
1"
1I
1J
#24800
0"
0I
0J
#24850
1"
1I
1J
#24900
0"
0I
0J
#24950
1"
1I
1J
#25000
0"
0I
0J
#25050
1"
1I
1J
#25100
0"
0I
0J
#25150
1"
1I
1J
#25200
0"
0I
0J
#25250
1"
1I
1J
#25300
0"
0I
0J
#25350
1"
1I
1J
#25400
0"
0I
0J
#25450
1"
1I
1J
#25500
0"
0I
0J
#25550
1"
1I
1J
#25600
0"
0I
0J
#25650
1"
1I
1J
#25700
0"
0I
0J
#25750
1"
1I
1J
#25800
0"
0I
0J
#25850
1"
1I
1J
#25900
0"
0I
0J
#25950
1"
1I
1J
#26000
0"
0I
0J
#26050
1"
1I
1J
#26100
0"
0I
0J
#26150
1"
1I
1J
#26200
0"
0I
0J
#26250
1"
1I
1J
#26300
0"
0I
0J
#26350
1"
1I
1J
#26400
0"
0I
0J
#26450
1"
1I
1J
#26500
0"
0I
0J
#26550
1"
1I
1J
#26600
0"
0I
0J
#26650
1"
1I
1J
#26700
0"
0I
0J
#26750
1"
1I
1J
#26800
0"
0I
0J
#26850
1"
1I
1J
#26900
0"
0I
0J
#26950
1"
1I
1J
#27000
0"
0I
0J
#27050
1"
1I
1J
#27100
0"
0I
0J
#27150
1"
1I
1J
#27200
0"
0I
0J
#27250
1"
1I
1J
#27300
0"
0I
0J
#27350
1"
1I
1J
#27400
0"
0I
0J
#27450
1"
1I
1J
#27500
0"
0I
0J
#27550
1"
1I
1J
#27600
0"
0I
0J
#27650
1"
1I
1J
#27700
0"
0I
0J
#27750
1"
1I
1J
#27800
0"
0I
0J
#27850
1"
1I
1J
#27900
0"
0I
0J
#27950
1"
1I
1J
#28000
0"
0I
0J
#28050
1"
1I
1J
#28100
0"
0I
0J
#28150
1"
1I
1J
#28200
0"
0I
0J
#28250
1"
1I
1J
#28300
0"
0I
0J
#28350
1"
1I
1J
#28400
0"
0I
0J
#28450
1"
1I
1J
#28500
0"
0I
0J
#28550
1"
1I
1J
#28600
0"
0I
0J
#28650
1"
1I
1J
#28700
0"
0I
0J
#28750
1"
1I
1J
#28800
0"
0I
0J
#28850
1"
1I
1J
#28900
0"
0I
0J
#28950
1"
1I
1J
#29000
0"
0I
0J
#29050
1"
1I
1J
#29100
0"
0I
0J
#29150
1"
1I
1J
#29200
0"
0I
0J
#29250
1"
1I
1J
#29300
0"
0I
0J
#29350
1"
1I
1J
#29400
0"
0I
0J
#29450
1"
1I
1J
#29500
0"
0I
0J
#29550
1"
1I
1J
#29600
0"
0I
0J
#29650
1"
1I
1J
#29700
0"
0I
0J
#29750
1"
1I
1J
#29800
0"
0I
0J
#29850
1"
1I
1J
#29900
0"
0I
0J
#29950
1"
1I
1J
#30000
b1111 !
0"
1L
0I
0J
1Q
1R
0a
0^
1T
04!
0'!
1b
0}
1Z
0(!
0~
#30050
1"
1I
1J
0)!
09
0&
#30100
0"
0I
0J
#30150
1"
1I
1J
#30200
0"
0I
0J
#30250
1"
1I
1J
#30300
0"
0I
0J
#30350
1"
1I
1J
#30400
0"
0I
0J
#30450
1"
1I
1J
#30500
0"
0I
0J
#30550
1"
1I
1J
#30600
0"
0I
0J
#30650
1"
1I
1J
#30700
0"
0I
0J
#30750
1"
1I
1J
#30800
0"
0I
0J
#30850
1"
1I
1J
#30900
0"
0I
0J
#30950
1"
1I
1J
#31000
0"
0I
0J
#31050
1"
1I
1J
#31100
0"
0I
0J
#31150
1"
1I
1J
#31200
0"
0I
0J
#31250
1"
1I
1J
#31300
0"
0I
0J
#31350
1"
1I
1J
#31400
0"
0I
0J
#31450
1"
1I
1J
#31500
0"
0I
0J
#31550
1"
1I
1J
#31600
0"
0I
0J
#31650
1"
1I
1J
#31700
0"
0I
0J
#31750
1"
1I
1J
#31800
0"
0I
0J
#31850
1"
1I
1J
#31900
0"
0I
0J
#31950
1"
1I
1J
#32000
0"
0I
0J
#32050
1"
1I
1J
#32100
0"
0I
0J
#32150
1"
1I
1J
#32200
0"
0I
0J
#32250
1"
1I
1J
#32300
0"
0I
0J
#32350
1"
1I
1J
#32400
0"
0I
0J
#32450
1"
1I
1J
#32500
0"
0I
0J
#32550
1"
1I
1J
#32600
0"
0I
0J
#32650
1"
1I
1J
#32700
0"
0I
0J
#32750
1"
1I
1J
#32800
0"
0I
0J
#32850
1"
1I
1J
#32900
0"
0I
0J
#32950
1"
1I
1J
#33000
0"
0I
0J
#33050
1"
1I
1J
#33100
0"
0I
0J
#33150
1"
1I
1J
#33200
0"
0I
0J
#33250
1"
1I
1J
#33300
0"
0I
0J
#33350
1"
1I
1J
#33400
0"
0I
0J
#33450
1"
1I
1J
#33500
0"
0I
0J
#33550
1"
1I
1J
#33600
0"
0I
0J
#33650
1"
1I
1J
#33700
0"
0I
0J
#33750
1"
1I
1J
#33800
0"
0I
0J
#33850
1"
1I
1J
#33900
0"
0I
0J
#33950
1"
1I
1J
#34000
0"
0I
0J
#34050
1"
1I
1J
#34100
0"
0I
0J
#34150
1"
1I
1J
#34200
0"
0I
0J
#34250
1"
1I
1J
#34300
0"
0I
0J
#34350
1"
1I
1J
#34400
0"
0I
0J
#34450
1"
1I
1J
#34500
0"
0I
0J
#34550
1"
1I
1J
#34600
0"
0I
0J
#34650
1"
1I
1J
#34700
0"
0I
0J
#34750
1"
1I
1J
#34800
0"
0I
0J
#34850
1"
1I
1J
#34900
0"
0I
0J
#34950
1"
1I
1J
#35000
0"
0I
0J
#35050
1"
1I
1J
#35100
0"
0I
0J
#35150
1"
1I
1J
#35200
0"
0I
0J
#35250
1"
1I
1J
#35300
0"
0I
0J
#35350
1"
1I
1J
#35400
0"
0I
0J
#35450
1"
1I
1J
#35500
0"
0I
0J
#35550
1"
1I
1J
#35600
0"
0I
0J
#35650
1"
1I
1J
#35700
0"
0I
0J
#35750
1"
1I
1J
#35800
0"
0I
0J
#35850
1"
1I
1J
#35900
0"
0I
0J
#35950
1"
1I
1J
#36000
0"
0I
0J
#36050
1"
1I
1J
#36100
0"
0I
0J
#36150
1"
1I
1J
#36200
0"
0I
0J
#36250
1"
1I
1J
#36300
0"
0I
0J
#36350
1"
1I
1J
#36400
0"
0I
0J
#36450
1"
1I
1J
#36500
0"
0I
0J
#36550
1"
1I
1J
#36600
0"
0I
0J
#36650
1"
1I
1J
#36700
0"
0I
0J
#36750
1"
1I
1J
#36800
0"
0I
0J
#36850
1"
1I
1J
#36900
0"
0I
0J
#36950
1"
1I
1J
#37000
0"
0I
0J
#37050
1"
1I
1J
#37100
0"
0I
0J
#37150
1"
1I
1J
#37200
0"
0I
0J
#37250
1"
1I
1J
#37300
0"
0I
0J
#37350
1"
1I
1J
#37400
0"
0I
0J
#37450
1"
1I
1J
#37500
0"
0I
0J
#37550
1"
1I
1J
#37600
0"
0I
0J
#37650
1"
1I
1J
#37700
0"
0I
0J
